%YAML 1.1
%TAG !u! tag:unity3d.com,2011:
--- !u!1 &8087552515292584554 stripped
GameObject:
  m_CorrespondingSourceObject: {fileID: 2064742081990194778, guid: 50410410d1470834090cac6d78f430fb, type: 3}
  m_PrefabInstance: {fileID: 7826039896376060976}
  m_PrefabAsset: {fileID: 0}
--- !u!212 &8087552515292584556 stripped
SpriteRenderer:
  m_CorrespondingSourceObject: {fileID: 2064742081990194780, guid: 50410410d1470834090cac6d78f430fb, type: 3}
  m_PrefabInstance: {fileID: 7826039896376060976}
  m_PrefabAsset: {fileID: 0}
--- !u!114 &2276514366055346085
MonoBehaviour:
  m_ObjectHideFlags: 0
  m_CorrespondingSourceObject: {fileID: 0}
  m_PrefabInstance: {fileID: 0}
  m_PrefabAsset: {fileID: 0}
  m_GameObject: {fileID: 8087552515292584554}
  m_Enabled: 1
  m_EditorHideFlags: 0
  m_Script: {fileID: 11500000, guid: cb27cb9283651944fb0b8489abd7e662, type: 3}
  m_Name: 
  m_EditorClassIdentifier: 
  speed: 2
  spriteRenderer: {fileID: 8087552515292584556}
  score: 100
  onScoreGranting:
    m_PersistentCalls:
      m_Calls: []
    m_TypeName: Galaga.Enemies.ScoreEvent, Assembly-CSharp, Version=0.0.0.0, Culture=neutral, PublicKeyToken=null
  onEnemyDestroyed:
    m_PersistentCalls:
      m_Calls: []
    m_TypeName: Galaga.Enemies.EnemyEvent, Assembly-CSharp, Version=0.0.0.0, Culture=neutral, PublicKeyToken=null
  onEnemyRegrouped:
    m_PersistentCalls:
      m_Calls: []
    m_TypeName: Galaga.Enemies.EnemyEvent, Assembly-CSharp, Version=0.0.0.0, Culture=neutral, PublicKeyToken=null
  target: {fileID: 0}
--- !u!1001 &7826039896376060976
PrefabInstance:
  m_ObjectHideFlags: 0
  serializedVersion: 2
  m_Modification:
    m_TransformParent: {fileID: 0}
    m_Modifications:
    - target: {fileID: 2064742081990194781, guid: 50410410d1470834090cac6d78f430fb, type: 3}
      propertyPath: m_LocalPosition.x
      value: 0
      objectReference: {fileID: 0}
    - target: {fileID: 2064742081990194781, guid: 50410410d1470834090cac6d78f430fb, type: 3}
      propertyPath: m_LocalPosition.y
      value: 0
      objectReference: {fileID: 0}
    - target: {fileID: 2064742081990194781, guid: 50410410d1470834090cac6d78f430fb, type: 3}
      propertyPath: m_LocalPosition.z
      value: 0
      objectReference: {fileID: 0}
    - target: {fileID: 2064742081990194781, guid: 50410410d1470834090cac6d78f430fb, type: 3}
      propertyPath: m_LocalRotation.x
      value: 0
      objectReference: {fileID: 0}
    - target: {fileID: 2064742081990194781, guid: 50410410d1470834090cac6d78f430fb, type: 3}
      propertyPath: m_LocalRotation.y
      value: 0
      objectReference: {fileID: 0}
    - target: {fileID: 2064742081990194781, guid: 50410410d1470834090cac6d78f430fb, type: 3}
      propertyPath: m_LocalRotation.z
      value: 0
      objectReference: {fileID: 0}
    - target: {fileID: 2064742081990194781, guid: 50410410d1470834090cac6d78f430fb, type: 3}
      propertyPath: m_LocalRotation.w
      value: 1
      objectReference: {fileID: 0}
    - target: {fileID: 2064742081990194781, guid: 50410410d1470834090cac6d78f430fb, type: 3}
      propertyPath: m_RootOrder
      value: 0
      objectReference: {fileID: 0}
    - target: {fileID: 2064742081990194781, guid: 50410410d1470834090cac6d78f430fb, type: 3}
      propertyPath: m_LocalEulerAnglesHint.x
      value: 0
      objectReference: {fileID: 0}
    - target: {fileID: 2064742081990194781, guid: 50410410d1470834090cac6d78f430fb, type: 3}
      propertyPath: m_LocalEulerAnglesHint.y
      value: 0
      objectReference: {fileID: 0}
    - target: {fileID: 2064742081990194781, guid: 50410410d1470834090cac6d78f430fb, type: 3}
      propertyPath: m_LocalEulerAnglesHint.z
      value: 0
      objectReference: {fileID: 0}
    - target: {fileID: 2064742081990194778, guid: 50410410d1470834090cac6d78f430fb, type: 3}
      propertyPath: m_Name
      value: BlueEnemy
      objectReference: {fileID: 0}
    - target: {fileID: 2064742081990194780, guid: 50410410d1470834090cac6d78f430fb, type: 3}
      propertyPath: m_FlipY
      value: 0
      objectReference: {fileID: 0}
    - target: {fileID: 2064742081990194780, guid: 50410410d1470834090cac6d78f430fb, type: 3}
      propertyPath: m_Sprite
      value: 
      objectReference: {fileID: 21300000, guid: ff3a3b8e7581d9a408e8b918fc1849c2, type: 3}
    - target: {fileID: 2064742081990194778, guid: 50410410d1470834090cac6d78f430fb, type: 3}
      propertyPath: m_TagString
      value: Enemy
      objectReference: {fileID: 0}
    - target: {fileID: 5662225075118720533, guid: 50410410d1470834090cac6d78f430fb, type: 3}
      propertyPath: m_UseFullKinematicContacts
      value: 0
      objectReference: {fileID: 0}
    - target: {fileID: 5662225075118720533, guid: 50410410d1470834090cac6d78f430fb, type: 3}
      propertyPath: m_BodyType
      value: 0
      objectReference: {fileID: 0}
    - target: {fileID: 5662225075118720533, guid: 50410410d1470834090cac6d78f430fb, type: 3}
      propertyPath: m_GravityScale
      value: 0
      objectReference: {fileID: 0}
    m_RemovedComponents: []
  m_SourcePrefab: {fileID: 100100000, guid: 50410410d1470834090cac6d78f430fb, type: 3}
